C:\Users\ROSHNI\eclipse-workspace\Restassured_Testng\src\TestScripts\Delete_TestScript.java
C:\Users\ROSHNI\eclipse-workspace\Restassured_Testng\src\TestScripts\Post_TestScript.java
C:\Users\ROSHNI\eclipse-workspace\Restassured_Testng\src\EnvironmentandRepositories\RequestRepository.java
C:\Users\ROSHNI\eclipse-workspace\Restassured_Testng\src\TestScripts\Put_TestScript.java
C:\Users\ROSHNI\eclipse-workspace\Restassured_Testng\src\CommonMethods\Utilities.java
C:\Users\ROSHNI\eclipse-workspace\Restassured_Testng\src\TestScripts\Get_TestScript.java
C:\Users\ROSHNI\eclipse-workspace\Restassured_Testng\src\TestScripts\Patch_TestScript.java
C:\Users\ROSHNI\eclipse-workspace\Restassured_Testng\src\CommonMethods\ExtentListenerClass.java
C:\Users\ROSHNI\eclipse-workspace\Restassured_Testng\src\TestScripts\Post_param_TestScript.java
C:\Users\ROSHNI\eclipse-workspace\Restassured_Testng\src\CommonMethods\API_Trigger.java
C:\Users\ROSHNI\eclipse-workspace\Restassured_Testng\src\EnvironmentandRepositories\Environment.java
